<?xml version="1.0" encoding="utf-8"?>
<!-- Generator: Adobe Illustrator 16.0.0, SVG Export Plug-In . SVG Version: 6.00 Build 0)  -->
<!DOCTYPE svg PUBLIC "-//W3C//DTD SVG 1.1//EN" "http://www.w3.org/Graphics/SVG/1.1/DTD/svg11.dtd">
<svg version="1.1" id="Layer_1" xmlns="http://www.w3.org/2000/svg" xmlns:xlink="http://www.w3.org/1999/xlink" x="0px" y="0px"
	 width="841.89px" height="595.281px" viewBox="0 0 841.89 595.281" enable-background="new 0 0 841.89 595.281"
	 xml:space="preserve">
<g>
	<g>
		<path fill="#FFFFFF" d="M420.945,87c-13.28,0-24.046,10.766-24.046,24.046v387.047c0,13.281,10.766,24.047,24.046,24.047
			c13.281,0,24.047-10.766,24.047-24.047V111.046C444.992,97.766,434.226,87,420.945,87z"/>
	</g>
</g>
<g>
	<g>
		<path fill="#FFFFFF" d="M643.144,299.238L437.949,94.043c-9.391-9.39-24.615-9.39-34.006,0L198.746,299.238
			c-9.391,9.391-9.391,24.616,0,34.008c9.391,9.389,24.616,9.389,34.006,0l188.192-188.192l188.191,188.192
			c4.695,4.695,10.852,7.044,17.004,7.044c6.154,0,12.311-2.349,17.004-7.044C652.533,323.854,652.533,308.628,643.144,299.238z"/>
	</g>
</g>
</svg>
