<?xml version="1.0" encoding="utf-8"?>
<!-- Generator: Adobe Illustrator 16.0.0, SVG Export Plug-In . SVG Version: 6.00 Build 0)  -->
<!DOCTYPE svg PUBLIC "-//W3C//DTD SVG 1.1//EN" "http://www.w3.org/Graphics/SVG/1.1/DTD/svg11.dtd">
<svg version="1.1" id="Capa_1" xmlns="http://www.w3.org/2000/svg" xmlns:xlink="http://www.w3.org/1999/xlink" x="0px" y="0px"
	 width="841.89px" height="595.281px" viewBox="0 0 841.89 595.281" enable-background="new 0 0 841.89 595.281"
	 xml:space="preserve">
<g>
	<g>
		<path fill="#00ADF2" d="M718.585,113.082c-21.91,9.708-45.418,16.292-70.119,19.231c25.221-15.103,44.527-39.058,53.676-67.515
			c-23.656,13.986-49.77,24.142-77.596,29.647c-22.281-23.77-53.973-38.575-89.125-38.575c-67.441,0-122.122,54.681-122.122,122.084
			c0,9.56,1.079,18.896,3.162,27.825c-101.476-5.097-191.458-53.714-251.681-127.59c-10.527,18.004-16.516,38.983-16.516,61.377
			c0,42.369,21.575,79.753,54.31,101.625c-20.013-0.669-38.835-6.174-55.313-15.325v1.525c0,59.145,42.108,108.507,97.942,119.741
			c-10.23,2.752-21.017,4.277-32.176,4.277c-7.886,0-15.512-0.781-22.989-2.27c15.548,48.545,60.633,83.844,114.05,84.813
			c-41.773,32.734-94.446,52.189-151.656,52.189c-9.857,0-19.566-0.596-29.126-1.674c54.049,34.705,118.216,54.941,187.181,54.941
			c224.638,0,347.429-186.064,347.429-347.43l-0.408-15.809C681.5,159.059,702.255,137.559,718.585,113.082z"/>
	</g>
</g>
</svg>
